[
  {
    "key": "alt+1",
    "command": "",
    "when": "editorTextFocus"
  },
  {
    "key": "alt+2",
    "command": "",
    "when": "editorTextFocus"
  },
  {
    "key": "alt+3",
    "command": "",
    "when": "editorTextFocus"
  },
  {
    "key": "alt+4",
    "command": "",
    "when": "editorTextFocus"
  },
  {
    "key": "alt+5",
    "command": "",
    "when": "editorTextFocus"
  },
  {
    "key": "alt+6",
    "command": "",
    "when": "editorTextFocus"
  },
  {
    "key": "alt+7",
    "command": "",
    "when": "editorTextFocus"
  },
  {
    "key": "alt+8",
    "command": "",
    "when": "editorTextFocus"
  },
  {
    "key": "alt+9",
    "command": "",
    "when": "editorTextFocus"
  },
  {
    "key": "ctrl+shift+alt+h",
    "command": "cursorHome",
    "when": "editorTextFocus"
  },
  {
    "key": "ctrl+shift+alt+l",
    "command": "cursorEnd",
    "when": "editorTextFocus"
  },
  {
    "key": "alt+h",
    "command": "cursorLeft",
    "when": "editorTextFocus"
  },
  {
    "key": "alt+j",
    "command": "cursorDown",
    "when": "editorTextFocus"
  },
  {
    "key": "alt+k",
    "command": "cursorUp",
    "when": "editorTextFocus"
  },
  {
    "key": "alt+l",
    "command": "cursorRight",
    "when": "editorTextFocus"
  },
  {
    "key": "alt+shift+h",
    "command": "cursorLeftSelect",
    "when": "editorTextFocus"
  },
  {
    "command": "cursorDownSelect",
    "key": "alt+shift+j",
    "when": "editorTextFocus"
  },
  {
    "key": "alt+shift+k",
    "command": "cursorUpSelect",
    "when": "editorTextFocus"
  },
  {
    "key": "alt+shift+l",
    "command": "cursorRightSelect",
    "when": "editorTextFocus"
  },
  {
    "key": "alt+z",
    "command": "cursorUndo",
    "when": "editorTextFocus"
  },
  {
    "key": "alt+shift+z",
    "command": "cursorRedo",
    "when": "editorTextFocus"
  },
  {
    "key": "ctrl+shift+alt+d b",
    "command": "workbench.debug.action.focusVariablesView"
  },
  {
    "key": "ctrl+shift+h",
    "command": "workbench.action.moveEditorLeftInGroup",
    "when": "editorTextFocus && !panelVisible"
  },
  {
    "key": "ctrl+shift+l",
    "command": "workbench.action.moveEditorRightInGroup",
    "when": "editorTextFocus && !panelVisible"
  },
  {
    "command": "workbench.action.nextEditorInGroup",
    "key": "ctrl+l",
    "when": "editorTextFocus && !panelVisible"
  },
  {
    "command": "workbench.action.previousEditorInGroup",
    "key": "ctrl+h",
    "when": "editorTextFocus && !panelVisible"
  },
  {
    "key": "ctrl+shift+alt+i",
    "command": "eslint.executeAutofix"
  },
  {
    "key": "ctrl+shift+alt+x b",
    "command": "workbench.explorer.fileView.focus"
  },
  {
    "key": "ctrl+shift+alt+x -",
    "command": "workbench.files.action.collapseExplorerFolders"
  },
  {
    "key": "ctrl+shift+alt+x =",
    "command": "workbench.files.action.showActiveFileInExplorer"
  },
  {
    "key": "ctrl+alt+h",
    "command": "workbench.action.navigateLeft"
  },
  {
    "key": "ctrl+alt+l",
    "command": "workbench.action.navigateRight"
  },
  {
    "key": "ctrl+alt+k",
    "command": "workbench.action.navigateUp"
  },
  {
    "key": "ctrl+alt+j",
    "command": "workbench.action.navigateDown"
  },
  {
    "key": "up",
    "command": "find.history.showPrevious",
    "when": "editorFocus && findInputFocussed && findWidgetVisible"
  },
  {
    "key": "up",
    "command": "workbench.action.terminal.findWidget.history.showPrevious",
    "when": "terminalFindWidgetInputFocused && terminalFindWidgetVisible"
  },
  {
    "key": "down",
    "command": "find.history.showNext",
    "when": "editorFocus && findInputFocussed && findWidgetVisible"
  },
  {
    "key": "down",
    "command": "workbench.action.terminal.findWidget.history.showNext",
    "when": "terminalFindWidgetInputFocused && terminalFindWidgetVisible"
  },
  {
    "key": "tab",
    "command": "workbench.action.quickOpenSelectNext",
    "when": "inQuickOpen"
  },
  {
    "key": "tab",
    "command": "workbench.action.quickOpenSelectNext",
    "when": "inputFocus && !editorFocus && !findInputFocussed && !findWidgetVisible"
  },
  {
    "key": "shift+tab",
    "command": "workbench.action.quickOpenSelectPrevious",
    "when": "inQuickOpen"
  },
  {
    "key": "shift+tab",
    "command": "workbench.action.quickOpenSelectPrevious",
    "when": "inputFocus && !editorFocus && !findInputFocussed && !findWidgetVisible"
  },
  {
    "key": "alt+b",
    "command": "cursorWordAccessibilityLeft",
    "when": "editorTextFocus"
  },
  {
    "key": "alt+w",
    "command": "cursorWordAccessibilityRight",
    "when": "editorTextFocus"
  },
  {
    "key": "alt+shift+b",
    "command": "cursorWordPartLeftSelect",
    "when": "editorTextFocus"
  },
  {
    "key": "alt+shift+w",
    "command": "cursorWordPartRightSelect",
    "when": "editorTextFocus"
  },
  {
    "key": "alt+u",
    "command": "cursorPageUp",
    "when": "editorTextFocus"
  },
  {
    "key": "alt+n",
    "command": "cursorPageDown",
    "when": "editorTextFocus"
  },
  {
    "key": "alt+shift+u",
    "command": "cursorPageUpSelect",
    "when": "editorTextFocus"
  },
  {
    "key": "alt+shift+n",
    "command": "cursorPageDownSelect",
    "when": "editorTextFocus"
  },
  {
    "key": "alt+j",
    "command": "repl.action.historyNext",
    "when": "editorTextFocus && inDebugRepl && onLastDebugReplLine"
  },
  {
    "key": "alt+j",
    "command": "settings.action.focusSettingsFile",
    "when": "inSettingsSearch"
  },
  {
    "key": "alt+j",
    "command": "showNextParameterHint",
    "when": "editorTextFocus && parameterHintsMultipleSignatures && parameterHintsVisible"
  },
  {
    "key": "alt+j",
    "command": "selectNextSuggestion",
    "when": "editorTextFocus && suggestWidgetMultipleSuggestions && suggestWidgetVisible"
  },
  {
    "key": "alt+j",
    "command": "keybindings.editor.focusKeybindings",
    "when": "inKeybindings && inKeybindingsSearch"
  },
  {
    "key": "alt+j",
    "command": "list.focusDown",
    "when": "listFocus && !inputFocus"
  },
  {
    "key": "alt+j",
    "command": "search.focus.nextInputBox",
    "when": "inputBoxFocus && searchViewletVisible"
  },
  {
    "key": "alt+j",
    "command": "workbench.action.interactivePlayground.arrowDown",
    "when": "interactivePlaygroundFocus && !editorTextFocus"
  },
  {
    "key": "alt+k",
    "command": "repl.action.historyPrevious",
    "when": "editorTextFocus && inDebugRepl && onFirsteDebugReplLine"
  },
  {
    "key": "alt+k",
    "command": "showPrevParameterHint",
    "when": "editorTextFocus && parameterHintsMultipleSignatures && parameterHintsVisible"
  },
  {
    "key": "alt+k",
    "command": "selectPrevSuggestion",
    "when": "editorTextFocus && suggestWidgetMultipleSuggestions && suggestWidgetVisible"
  },
  {
    "key": "alt+k",
    "command": "list.focusUp",
    "when": "listFocus && !inputFocus"
  },
  {
    "key": "alt+k",
    "command": "search.action.focusSearchFromResults",
    "when": "firstMatchFocus && searchViewletVisible"
  },
  {
    "key": "alt+k",
    "command": "search.focus.previousInputBox",
    "when": "inputBoxFocus && searchViewletVisible && !searchInputBoxFocus"
  },
  {
    "key": "alt+k",
    "command": "workbench.action.interactivePlayground.arrowUp",
    "when": "interactivePlaygroundFocus && !editorTextFocus"
  },
  {
    "key": "alt+k",
    "command": "find.history.showPrevious",
    "when": "editorFocus && findInputFocussed && findWidgetVisible"
  },
  {
    "key": "alt+k",
    "command": "workbench.action.terminal.findWidget.history.showPrevious",
    "when": "terminalFindWidgetInputFocused && terminalFindWidgetVisible"
  },
  {
    "key": "alt+j",
    "command": "workbench.action.quickOpenSelectNext",
    "when": "inQuickOpen"
  },
  {
    "key": "alt+k",
    "command": "workbench.action.quickOpenSelectPrevious",
    "when": "inQuickOpen"
  },
  {
    "key": "alt+j",
    "command": "workbench.action.compareEditor.nextChange",
    "when": "textCompareEditorVisible && !findInputFocussed"
  },
  {
    "key": "alt+k",
    "command": "workbench.action.compareEditor.previousChange",
    "when": "textCompareEditorVisible && !findInputFocussed"
  },
  {
    "key": "ctrl+shift+alt+k",
    "command": "editor.action.moveLinesUpAction",
    "when": "editorTextFocus"
  },
  {
    "key": "ctrl+shift+alt+j",
    "command": "editor.action.moveLinesDownAction",
    "when": "editorTextFocus"
  },
  {
    "key": "ctrl+l",
    "command": "workbench.action.nextPanelView",
    "when": "panelVisible"
  },
  {
    "key": "ctrl+h",
    "command": "workbench.action.previousPanelView",
    "when": "panelVisible"
  },
  {
    "key": "alt+j",
    "command": "workbench.action.quickOpenSelectNext",
    "when": "inputFocus && !editorFocus && !findInputFocussed && !findWidgetVisible"
  },
  {
    "key": "alt+k",
    "command": "workbench.action.quickOpenSelectPrevious",
    "when": "inputFocus && !editorFocus && !findInputFocussed && !findWidgetVisible"
  },
  {
    "key": "alt+shift+i",
    "command": "editor.action.smartSelect.expand",
    "when": "editorTextFocus"
  },
  {
    "key": "alt+shift+u",
    "command": "cursorUndo",
    "when": "editorTextFocus"
  },
  {
    "key": "ctrl+alt+=",
    "command": "workbench.action.splitEditorRight",
    "when": "!panelVisible"
  },
  {
    "key": "ctrl+alt+-",
    "command": "workbench.action.splitEditorDown",
    "when": "!panelVisible"
  },
  {
    "key": "ctrl+shift+k",
    "command": "workbench.action.terminal.focusPrevious",
    "when": "terminalFocus"
  },
  {
    "key": "ctrl+shift+j",
    "command": "workbench.action.terminal.focusNext",
    "when": "terminalFocus"
  },
  {
    "key": "ctrl+shift+h",
    "command": "workbench.action.terminal.kill",
    "when": "terminalFocus"
  },
  {
    "key": "ctrl+shift+l",
    "command": "workbench.action.terminal.new",
    "when": "terminalFocus"
  }
]